module Hello

from "wasi/process" include Process;
from "array" include Array;
from "result" include Result
from "string" include String

print("Hello, Grain!\n\n")

print("==== Args: ====\n");
Array.forEach(v => print(String.concat(v,"\n")), Result.unwrap(Process.argv()));

print("==== Environment: ====\n");
Array.forEach(v => print(String.concat(v,"\n")), Result.unwrap(Process.env()));
